{
  "appId": "com.Demo_72PI.app",
  "appName": "Demo_72PI",
  "webDir": "www",
  "npmClient": "npm",
  "cordova": {
    "preferences": {
      "ScrollEnabled": "false",
      "BackupWebStorage": "none",
      "SplashMaintainAspectRatio": "true",
      "FadeSplashScreenDuration": "300",
      "SplashShowOnlyFirstTime": "false",
      "SplashScreen": "screen",
      "SplashScreenDelay": "3000"
    }
  }
}
