<svg xmlns="http://www.w3.org/2000/svg" width="20" height="21" viewBox="0 0 20 21">
  <text id="facebook" transform="translate(0 18)" fill="#0e131f" font-size="20" font-family="FontAwesome5Brands-Regular, 'Font Awesome 5 Brands'"><tspan x="0" y="0">facebook</tspan></text>
</svg>
