<svg xmlns="http://www.w3.org/2000/svg" width="18" height="21" viewBox="0 0 18 21">
  <text id="linkedin" transform="translate(0 18)" fill="#0e131f" font-size="20" font-family="FontAwesome5Brands-Regular, 'Font Awesome 5 Brands'"><tspan x="0" y="0">linkedin</tspan></text>
</svg>
