<?xml version="1.0" encoding="UTF-8"?>
<svg xmlns="http://www.w3.org/2000/svg" xmlns:xlink="http://www.w3.org/1999/xlink" width="705pt" height="591.000005pt" viewBox="0 0 705 591.000005" version="1.2">
<defs>
<clipPath id="clip1">
  <path d="M 255.953125 163.671875 L 449.128906 163.671875 L 449.128906 399.523438 L 255.953125 399.523438 Z M 255.953125 163.671875 "/>
</clipPath>
</defs>
<g id="surface1">
<g clip-path="url(#clip1)" clip-rule="nonzero">
<path style=" stroke:none;fill-rule:nonzero;fill:rgb(0%,12.548828%,37.649536%);fill-opacity:1;" d="M 352.539062 163.671875 L 255.957031 206.554688 L 255.957031 270.878906 C 255.957031 330.429688 297.113281 385.960938 352.539062 399.523438 C 407.96875 385.960938 449.125 330.429688 449.125 270.878906 L 449.125 206.554688 Z M 331.078125 335.199219 L 288.152344 292.316406 L 303.335938 277.148438 L 331.078125 304.859375 L 401.746094 234.265625 L 416.929688 249.4375 Z M 331.078125 335.199219 "/>
</g>
</g>
</svg>
